PROYECTO_02/CODIGO_P/uP_tb.vcd
$date
	Sat Nov 21 16:12:34 2020
$end
$version
	Icarus Verilog
$end
$timescale
	1ps
$end
$scope module testbench $end
$var wire 4 ! data_bus [3:0] $end
$var wire 1 " z_flag $end
$var wire 8 # program_byte [7:0] $end
$var wire 1 $ phase $end
$var wire 4 % oprnd [3:0] $end
$var wire 4 & instr [3:0] $end
$var wire 1 ' c_flag $end
$var wire 12 ( address_RAM [11:0] $end
$var wire 4 ) accu [3:0] $end
$var wire 12 * PC [11:0] $end
$var wire 4 + FF_out [3:0] $end
$var reg 1 , clock $end
$var reg 4 - pushbuttons [3:0] $end
$var reg 1 . reset $end
$var integer 32 / immediateDelay [31:0] $end
$var integer 32 0 jumpDelay [31:0] $end
$var integer 32 1 memoryDelay [31:0] $end
$var integer 32 2 nota [31:0] $end
$scope module uPmodule $end
$var wire 1 , clock $end
$var wire 4 3 data_bus [3:0] $end
$var wire 1 4 enphase $end
$var wire 1 5 nphase $end
$var wire 4 6 pushbuttons [3:0] $end
$var wire 1 . reset $end
$var wire 1 " z_flag $end
$var wire 1 7 weRAM $end
$var wire 8 8 program_byte [7:0] $end
$var wire 1 $ phase $end
$var wire 4 9 oprnd [3:0] $end
$var wire 1 : oeOprnd $end
$var wire 1 ; oeIN $end
$var wire 1 < oeALU $end
$var wire 1 = loadPC $end
$var wire 1 > loadOut $end
$var wire 1 ? loadFlags $end
$var wire 1 @ loadA $end
$var wire 4 A instr [3:0] $end
$var wire 1 B incPC $end
$var wire 1 C flag_z $end
$var wire 1 D flag_c $end
$var wire 1 E csRAM $end
$var wire 1 ' c_flag $end
$var wire 12 F address_RAM [11:0] $end
$var wire 4 G accu [3:0] $end
$var wire 3 H S_A [2:0] $end
$var wire 12 I PC [11:0] $end
$var wire 4 J FF_out [3:0] $end
$var wire 4 K ALU_O [3:0] $end
$scope module Accu $end
$var wire 1 , clk $end
$var wire 1 @ enable $end
$var wire 1 . reset $end
$var wire 4 L ALUS [3:0] $end
$var reg 4 M ACCU [3:0] $end
$upscope $end
$scope module B1 $end
$var wire 4 N Y [3:0] $end
$var wire 1 : enable $end
$var wire 4 O D [3:0] $end
$upscope $end
$scope module B2 $end
$var wire 4 P Y [3:0] $end
$var wire 1 < enable $end
$var wire 4 Q D [3:0] $end
$upscope $end
$scope module Deco $end
$var wire 7 R IN [6:0] $end
$var reg 13 S OUTS [12:0] $end
$upscope $end
$scope module Fetch $end
$var wire 1 , clk $end
$var wire 1 5 enable $end
$var wire 1 . reset $end
$var wire 8 T PROGRAM_BYTE [7:0] $end
$var reg 4 U INSTR [3:0] $end
$var reg 4 V OPRND [3:0] $end
$upscope $end
$scope module Inputs $end
$var wire 4 W D [3:0] $end
$var wire 4 X Y [3:0] $end
$var wire 1 ; enable $end
$upscope $end
$scope module OUTPUTS $end
$var wire 4 Y ALUS [3:0] $end
$var wire 1 , clk $end
$var wire 1 > enable $end
$var wire 1 . reset $end
$var reg 4 Z ACCU [3:0] $end
$upscope $end
$scope module PROGCOUNT $end
$var wire 12 [ LOAD [11:0] $end
$var wire 1 , clk $end
$var wire 1 B enable $end
$var wire 1 = incPC $end
$var wire 1 . reset $end
$var reg 12 \ PC [11:0] $end
$upscope $end
$scope module Phase $end
$var wire 1 ] D $end
$var wire 1 , clk $end
$var wire 1 4 enable $end
$var wire 1 . reset $end
$var wire 1 $ Q $end
$scope module U1 $end
$var wire 1 ] D $end
$var wire 1 , clk $end
$var wire 1 4 enable $end
$var wire 1 . reset $end
$var reg 1 $ Q $end
$upscope $end
$upscope $end
$scope module ROM $end
$var wire 12 ^ PC [11:0] $end
$var wire 8 _ PROGRAM_BYTE [7:0] $end
$upscope $end
$scope module alu $end
$var wire 4 ` ACCU [3:0] $end
$var wire 4 a DATA_BUS [3:0] $end
$var wire 3 b F [2:0] $end
$var wire 1 C ZERO $end
$var wire 4 c OUT [3:0] $end
$var wire 1 D CARRY $end
$var reg 5 d OUT5 [4:0] $end
$upscope $end
$scope module flag $end
$var wire 1 , clk $end
$var wire 1 ? enable $end
$var wire 2 e flags [1:0] $end
$var wire 1 . reset $end
$var reg 2 f out_flags [1:0] $end
$upscope $end
$scope module ram $end
$var wire 12 g address_RAM [11:0] $end
$var wire 1 E csRAM $end
$var wire 4 h data_bus [3:0] $end
$var wire 1 7 weRAM $end
$var reg 4 i dataout [3:0] $end
$upscope $end
$upscope $end
$upscope $end
$enddefinitions $end
#0
$dumpvars
bx i
bx h
bx g
bx f
bx e
bx d
bx c
bx b
bx a
bx `
bx _
bx ^
x]
bx \
bx [
bx Z
bx Y
bx X
b110 W
bx V
bx U
bx T
bx S
bx R
bx Q
bx P
bx O
bx N
bx M
bx L
bx K
bx J
bx I
bx H
bx G
bx F
xE
xD
xC
xB
bx A
x@
x?
x>
x=
x<
x;
x:
bx 9
bx 8
x7
b110 6
x5
14
bx 3
b0 2
b100010100 1
b1010010000 0
b10000 /
0.
b110 -
0,
bx +
bx *
bx )
bx (
x'
bx &
bx %
x$
bx #
x"
bx !
$end
#2
1C
b0 !
b0 3
b0 N
b0 P
b0 X
b0 Y
b0 a
b0 h
0>
0:
0;
1<
07
0E
b0 H
b0 b
0?
0@
0=
1B
b0 K
b0 L
b0 Q
b0 c
b1 e
0D
b1000000001000 S
b0 d
1]
15
0"
0'
b1001111 #
b1001111 8
b1001111 T
b1001111 _
b0 *
b0 I
b0 \
b0 ^
b1001111 (
b1001111 F
b1001111 [
b1001111 g
b0 %
b0 9
b0 O
b0 V
b0 &
b0 A
b0 U
b0 R
0$
b0 )
b0 G
b0 M
b0 `
b0 f
b0 +
b0 J
b0 Z
1.
#3
0.
#5
b0 e
0C
b1111 K
b1111 L
b1111 Q
b1111 c
b1111 d
b1111 !
b1111 3
b1111 N
b1111 P
b1111 X
b1111 Y
b1111 a
b1111 h
1:
0<
b10 H
b10 b
1?
1@
0B
b11010000010 S
0]
05
1$
b1111 %
b1111 9
b1111 O
b1111 V
b100001 R
b100 &
b100 A
b100 U
b111111011111 (
b111111011111 F
b111111011111 [
b111111011111 g
b11011111 #
b11011111 8
b11011111 T
b11011111 _
b1 *
b1 I
b1 \
b1 ^
1,
#10
0,
#15
0:
1<
b0 H
b0 b
0?
0@
1B
b1000000001000 S
1]
15
b100000 R
0$
b1111 )
b1111 G
b1111 M
b1111 `
1,
#16
b1000110 2
#20
0,
#25
1>
0B
b1001 S
0]
05
1$
b1101001 R
b1101 &
b1101 A
b1101 U
b111101010001 (
b111101010001 F
b111101010001 [
b111101010001 g
b1010001 #
b1010001 8
b1010001 T
b1010001 _
b10 *
b10 I
b10 \
b10 ^
1,
#30
0,
#35
0>
1B
b1000000001000 S
1]
15
b1101000 R
0$
b1111 +
b1111 J
b1111 Z
1,
#36
b1100111 2
#40
0,
#45
b110 K
b110 L
b110 Q
b110 c
b110 d
b110 !
b110 3
b110 N
b110 P
b110 X
b110 Y
b110 a
b110 h
1;
0<
b10 H
b10 b
1?
1@
0B
b11010000100 S
0]
05
1$
b1 %
b1 9
b1 O
b1 V
b101001 R
b101 &
b101 A
b101 U
b101000000 (
b101000000 F
b101000000 [
b101000000 g
b1000000 #
b1000000 8
b1000000 T
b1000000 _
b11 *
b11 I
b11 \
b11 ^
1,
#50
0,
#55
0;
1<
b0 H
b0 b
0?
0@
1B
b1000000001000 S
1]
15
b101000 R
0$
b110 )
b110 G
b110 M
b110 `
1,
#56
b10001000 2
#60
0,
#65
b1 e
1C
b0 K
b0 L
b0 Q
b0 c
b0 d
b0 !
b0 3
b0 N
b0 P
b0 X
b0 Y
b0 a
b0 h
1:
0<
b10 H
b10 b
1?
1@
0B
b11010000010 S
0]
05
1$
b0 %
b0 9
b0 O
b0 V
b100001 R
b100 &
b100 A
b100 U
b1001111 (
b1001111 F
b1001111 [
b1001111 g
b1001111 #
b1001111 8
b1001111 T
b1001111 _
b100 *
b100 I
b100 \
b100 ^
1,
#70
0,
#75
0:
1<
b0 H
b0 b
0?
0@
1B
b1000000001000 S
1]
15
1"
b100010 R
0$
b0 )
b0 G
b0 M
b0 `
b1 f
1,
#80
0,
#85
b0 e
0C
b1111 K
b1111 L
b1111 Q
b1111 c
b1111 d
b1111 !
b1111 3
b1111 N
b1111 P
b1111 X
b1111 Y
b1111 a
b1111 h
1:
0<
b10 H
b10 b
1?
1@
0B
b11010000010 S
0]
05
b100011 R
1$
b1111 %
b1111 9
b1111 O
b1111 V
b111110101010 (
b111110101010 F
b111110101010 [
b111110101010 g
b10101010 #
b10101010 8
b10101010 T
b10101010 _
b101 *
b101 I
b101 \
b101 ^
1,
#90
0,
#95
0:
1<
b0 H
b0 b
0?
0@
1B
b1000000001000 S
1]
15
0"
b100000 R
0$
b1111 )
b1111 G
b1111 M
b1111 `
b0 f
1,
#100
0,
#105
b1001 K
b1001 L
b1001 Q
b1001 c
b10 e
1D
b11001 d
b1010 !
b1010 3
b1010 N
b1010 P
b1010 X
b1010 Y
b1010 a
b1010 h
1:
0<
b11 H
b11 b
1?
1@
0B
b11011000010 S
0]
05
1$
b1010 %
b1010 9
b1010 O
b1010 V
b1010001 R
b1010 &
b1010 A
b1010 U
b101000101000 (
b101000101000 F
b101000101000 [
b101000101000 g
b101000 #
b101000 8
b101000 T
b101000 _
b110 *
b110 I
b110 \
b110 ^
1,
#110
0,
#115
b0 e
0D
b1001 !
b1001 3
b1001 N
b1001 P
b1001 X
b1001 Y
b1001 a
b1001 h
0:
1<
b0 H
b0 b
0?
0@
1B
b1001 K
b1001 L
b1001 Q
b1001 c
b1000000001000 S
b1001 d
1]
15
1'
b1010100 R
0$
b1001 )
b1001 G
b1001 M
b1001 `
b10 f
1,
#116
b10101001 2
#120
0,
#125
b1 K
b1 L
b1 Q
b1 c
b1 d
b1000 !
b1000 3
b1000 N
b1000 P
b1000 X
b1000 Y
b1000 a
b1000 h
1:
0<
b1 H
b1 b
1?
0B
b1001000010 S
0]
05
1$
b1000 %
b1000 9
b1000 O
b1000 V
b10101 R
b10 &
b10 A
b10 U
b100001001010 (
b100001001010 F
b100001001010 [
b100001001010 g
b1001010 #
b1001010 8
b1001010 T
b1001010 _
b111 *
b111 I
b111 \
b111 ^
1,
#130
0,
#135
b1001 K
b1001 L
b1001 Q
b1001 c
b1001 d
b1001 !
b1001 3
b1001 N
b1001 P
b1001 X
b1001 Y
b1001 a
b1001 h
0:
1<
b0 H
b0 b
0?
1B
b1000000001000 S
1]
15
0'
b10000 R
0$
b0 f
1,
#136
b11001010 2
#140
0,
#145
b1010 K
b1010 L
b1010 Q
b1010 c
b1010 d
b1010 !
b1010 3
b1010 N
b1010 P
b1010 X
b1010 Y
b1010 a
b1010 h
1:
0<
b10 H
b10 b
1?
1@
0B
b11010000010 S
0]
05
1$
b1010 %
b1010 9
b1010 O
b1010 V
b100001 R
b100 &
b100 A
b100 U
b101000101100 (
b101000101100 F
b101000101100 [
b101000101100 g
b101100 #
b101100 8
b101100 T
b101100 _
b1000 *
b1000 I
b1000 \
b1000 ^
1,
#150
0,
#155
0:
1<
b0 H
b0 b
0?
0@
1B
b1000000001000 S
1]
15
b100000 R
0$
b1010 )
b1010 G
b1010 M
b1010 `
1,
#160
0,
#165
b10 e
1D
b1110 K
b1110 L
b1110 Q
b1110 c
b11110 d
b1100 !
b1100 3
b1100 N
b1100 P
b1100 X
b1100 Y
b1100 a
b1100 h
1:
0<
b1 H
b1 b
1?
0B
b1001000010 S
0]
05
1$
b1100 %
b1100 9
b1100 O
b1100 V
b10001 R
b10 &
b10 A
b10 U
b110010100001 (
b110010100001 F
b110010100001 [
b110010100001 g
b10100001 #
b10100001 8
b10100001 T
b10100001 _
b1001 *
b1001 I
b1001 \
b1001 ^
1,
#170
0,
#175
b1010 K
b1010 L
b1010 Q
b1010 c
b0 e
0D
b1010 d
b1010 !
b1010 3
b1010 N
b1010 P
b1010 X
b1010 Y
b1010 a
b1010 h
0:
1<
b0 H
b0 b
0?
1B
b1000000001000 S
1]
15
1'
b10100 R
0$
b10 f
1,
#176
b11101011 2
#180
0,
#185
b1011 K
b1011 L
b1011 Q
b1011 c
b1011 d
b1 !
b1 3
b1 N
b1 P
b1 X
b1 Y
b1 a
b1 h
1:
0<
b11 H
b11 b
1?
1@
0B
b11011000010 S
0]
05
1$
b1 %
b1 9
b1 O
b1 V
b1010101 R
b1010 &
b1010 A
b1010 U
b111101011 (
b111101011 F
b111101011 [
b111101011 g
b11101011 #
b11101011 8
b11101011 T
b11101011 _
b1010 *
b1010 I
b1010 \
b1010 ^
1,
#190
0,
#195
b1011 !
b1011 3
b1011 N
b1011 P
b1011 X
b1011 Y
b1011 a
b1011 h
0:
1<
b0 H
b0 b
0?
0@
1B
b1011 K
b1011 L
b1011 Q
b1011 c
b1000000001000 S
b1011 d
1]
15
0'
b1010000 R
0$
b1011 )
b1011 G
b1011 M
b1011 `
b0 f
1,
#196
b100001100 2
#200
0,
#205
b100 K
b100 L
b100 Q
b100 c
b100 d
b1011 !
b1011 3
b1011 N
b1011 P
b1011 X
b1011 Y
b1011 a
b1011 h
1:
0<
b100 H
b100 b
1?
1@
0B
b11100000010 S
0]
05
1$
b1011 %
b1011 9
b1011 O
b1011 V
b1110001 R
b1110 &
b1110 A
b1110 U
b101111010000 (
b101111010000 F
b101111010000 [
b101111010000 g
b11010000 #
b11010000 8
b11010000 T
b11010000 _
b1011 *
b1011 I
b1011 \
b1011 ^
1,
#210
0,
#215
b100 !
b100 3
b100 N
b100 P
b100 X
b100 Y
b100 a
b100 h
0:
1<
b0 H
b0 b
0?
0@
1B
b100 K
b100 L
b100 Q
b100 c
b1000000001000 S
b100 d
1]
15
b1110000 R
0$
b100 )
b100 G
b100 M
b100 `
1,
#216
b101001110 2
#220
0,
#225
1>
0B
b1001 S
0]
05
1$
b0 %
b0 9
b0 O
b0 V
b1101001 R
b1101 &
b1101 A
b1101 U
b1010000 (
b1010000 F
b1010000 [
b1010000 g
b1010000 #
b1010000 8
b1010000 T
b1010000 _
b1100 *
b1100 I
b1100 \
b1100 ^
1,
#230
0,
#235
0>
1B
b1000000001000 S
1]
15
b1101000 R
0$
b100 +
b100 J
b100 Z
1,
#236
b1110 -
b1110 6
b1110 W
b101101111 2
#240
0,
#245
b1110 K
b1110 L
b1110 Q
b1110 c
b1110 d
b1110 !
b1110 3
b1110 N
b1110 P
b1110 X
b1110 Y
b1110 a
b1110 h
1;
0<
b10 H
b10 b
1?
1@
0B
b11010000100 S
0]
05
1$
b101001 R
b101 &
b101 A
b101 U
b1110000 (
b1110000 F
b1110000 [
b1110000 g
b1110000 #
b1110000 8
b1110000 T
b1110000 _
b1101 *
b1101 I
b1101 \
b1101 ^
1,
#250
0,
#255
0;
1<
b0 H
b0 b
0?
0@
1B
b1000000001000 S
1]
15
b101000 R
0$
b1110 )
b1110 G
b1110 M
b1110 `
1,
#256
b110010000 2
#260
0,
#265
17
1E
b1000000111000 S
0]
05
1$
b111001 R
b111 &
b111 A
b111 U
b0 (
b0 F
b0 [
b0 g
b0 #
b0 8
b0 T
b0 _
b1110 *
b1110 I
b1110 \
b1110 ^
1,
#270
0,
#275
07
0E
b1000000001000 S
1]
15
b1001111 (
b1001111 F
b1001111 [
b1001111 g
b1001111 #
b1001111 8
b1001111 T
b1001111 _
b1111 *
b1111 I
b1111 \
b1111 ^
b111000 R
0$
1,
#280
0,
#285
b1111 K
b1111 L
b1111 Q
b1111 c
b1111 d
b1111 !
b1111 3
b1111 N
b1111 P
b1111 X
b1111 Y
b1111 a
b1111 h
1:
0<
b10 H
b10 b
1?
1@
0B
b11010000010 S
0]
05
1$
b1111 %
b1111 9
b1111 O
b1111 V
b100001 R
b100 &
b100 A
b100 U
b111101110001 (
b111101110001 F
b111101110001 [
b111101110001 g
b1110001 #
b1110001 8
b1110001 T
b1110001 _
b10000 *
b10000 I
b10000 \
b10000 ^
1,
#290
0,
#295
0:
1<
b0 H
b0 b
0?
0@
1B
b1000000001000 S
1]
15
b100000 R
0$
b1111 )
b1111 G
b1111 M
b1111 `
1,
#300
0,
#305
17
1E
b1000000111000 S
0]
05
1$
b1 %
b1 9
b1 O
b1 V
b111001 R
b111 &
b111 A
b111 U
b100010001 (
b100010001 F
b100010001 [
b100010001 g
b10001 #
b10001 8
b10001 T
b10001 _
b10001 *
b10001 I
b10001 \
b10001 ^
1,
#310
0,
#315
07
0E
b1000000001000 S
1]
15
b101001010 (
b101001010 F
b101001010 [
b101001010 g
b1001010 #
b1001010 8
b1001010 T
b1001010 _
b10010 *
b10010 I
b10010 \
b10010 ^
b111000 R
0$
1,
#320
0,
#325
b1010 K
b1010 L
b1010 Q
b1010 c
b1010 d
b1010 !
b1010 3
b1010 N
b1010 P
b1010 X
b1010 Y
b1010 a
b1010 h
1:
0<
b10 H
b10 b
1?
1@
0B
b11010000010 S
0]
05
1$
b1010 %
b1010 9
b1010 O
b1010 V
b100001 R
b100 &
b100 A
b100 U
b101001110010 (
b101001110010 F
b101001110010 [
b101001110010 g
b1110010 #
b1110010 8
b1110010 T
b1110010 _
b10011 *
b10011 I
b10011 \
b10011 ^
1,
#330
0,
#335
0:
1<
b0 H
b0 b
0?
0@
1B
b1000000001000 S
1]
15
b100000 R
0$
b1010 )
b1010 G
b1010 M
b1010 `
1,
#340
0,
#345
17
1E
b1000000111000 S
0]
05
1$
b10 %
b10 9
b10 O
b10 V
b111001 R
b111 &
b111 A
b111 U
b1000100010 (
b1000100010 F
b1000100010 [
b1000100010 g
b100010 #
b100010 8
b100010 T
b100010 _
b10100 *
b10100 I
b10100 \
b10100 ^
1,
#350
0,
#355
07
0E
b1000000001000 S
1]
15
b1001000001 (
b1001000001 F
b1001000001 [
b1001000001 g
b1000001 #
b1000001 8
b1000001 T
b1000001 _
b10101 *
b10101 I
b10101 \
b10101 ^
b111000 R
0$
1,
#360
0,
#365
b1 K
b1 L
b1 Q
b1 c
b1 d
b1 !
b1 3
b1 N
b1 P
b1 X
b1 Y
b1 a
b1 h
1:
0<
b10 H
b10 b
1?
1@
0B
b11010000010 S
0]
05
1$
b1 %
b1 9
b1 O
b1 V
b100001 R
b100 &
b100 A
b100 U
b101110011 (
b101110011 F
b101110011 [
b101110011 g
b1110011 #
b1110011 8
b1110011 T
b1110011 _
b10110 *
b10110 I
b10110 \
b10110 ^
1,
#370
0,
#375
0:
1<
b0 H
b0 b
0?
0@
1B
b1000000001000 S
1]
15
b100000 R
0$
b1 )
b1 G
b1 M
b1 `
1,
#380
0,
#385
17
1E
b1000000111000 S
0]
05
1$
b11 %
b11 9
b11 O
b11 V
b111001 R
b111 &
b111 A
b111 U
b1100110011 (
b1100110011 F
b1100110011 [
b1100110011 g
b110011 #
b110011 8
b110011 T
b110011 _
b10111 *
b10111 I
b10111 \
b10111 ^
1,
#390
0,
#395
07
0E
b1000000001000 S
1]
15
b1101100000 (
b1101100000 F
b1101100000 [
b1101100000 g
b1100000 #
b1100000 8
b1100000 T
b1100000 _
b11000 *
b11000 I
b11000 \
b11000 ^
b111000 R
0$
1,
#400
0,
#405
b0 e
0C
b1110 K
b1110 L
b1110 Q
b1110 c
b1110 d
b1110 i
b1110 !
b1110 3
b1110 N
b1110 P
b1110 X
b1110 Y
b1110 a
b1110 h
0<
1E
b10 H
b10 b
1?
1@
b1011010100000 S
0]
05
1$
b0 %
b0 9
b0 O
b0 V
b110001 R
b110 &
b110 A
b110 U
b0 (
b0 F
b0 [
b0 g
b0 #
b0 8
b0 T
b0 _
b11001 *
b11001 I
b11001 \
b11001 ^
1,
#410
0,
#415
b1110 !
b1110 3
b1110 N
b1110 P
b1110 X
b1110 Y
b1110 a
b1110 h
1<
0E
b0 H
b0 b
0?
0@
bx i
b1000000001000 S
1]
15
b1100001 (
b1100001 F
b1100001 [
b1100001 g
b1100001 #
b1100001 8
b1100001 T
b1100001 _
b11010 *
b11010 I
b11010 \
b11010 ^
b110000 R
0$
b1110 )
b1110 G
b1110 M
b1110 `
1,
#420
0,
#425
b0 e
0C
b1111 K
b1111 L
b1111 Q
b1111 c
b1111 d
b1111 i
b1111 !
b1111 3
b1111 N
b1111 P
b1111 X
b1111 Y
b1111 a
b1111 h
0<
1E
b10 H
b10 b
1?
1@
b1011010100000 S
0]
05
b110001 R
1$
b1 %
b1 9
b1 O
b1 V
b100010001 (
b100010001 F
b100010001 [
b100010001 g
b10001 #
b10001 8
b10001 T
b10001 _
b11011 *
b11011 I
b11011 \
b11011 ^
1,
#430
0,
#435
b1111 !
b1111 3
b1111 N
b1111 P
b1111 X
b1111 Y
b1111 a
b1111 h
1<
0E
b0 H
b0 b
0?
0@
bx i
b1000000001000 S
1]
15
b101100010 (
b101100010 F
b101100010 [
b101100010 g
b1100010 #
b1100010 8
b1100010 T
b1100010 _
b11100 *
b11100 I
b11100 \
b11100 ^
b110000 R
0$
b1111 )
b1111 G
b1111 M
b1111 `
1,
#440
0,
#445
b0 e
0C
b1010 K
b1010 L
b1010 Q
b1010 c
b1010 d
b1010 i
b1010 !
b1010 3
b1010 N
b1010 P
b1010 X
b1010 Y
b1010 a
b1010 h
0<
1E
b10 H
b10 b
1?
1@
b1011010100000 S
0]
05
b110001 R
1$
b10 %
b10 9
b10 O
b10 V
b1000100010 (
b1000100010 F
b1000100010 [
b1000100010 g
b100010 #
b100010 8
b100010 T
b100010 _
b11101 *
b11101 I
b11101 \
b11101 ^
1,
#450
0,
#455
b1010 !
b1010 3
b1010 N
b1010 P
b1010 X
b1010 Y
b1010 a
b1010 h
1<
0E
b0 H
b0 b
0?
0@
bx i
b1000000001000 S
1]
15
b1001100011 (
b1001100011 F
b1001100011 [
b1001100011 g
b1100011 #
b1100011 8
b1100011 T
b1100011 _
b11110 *
b11110 I
b11110 \
b11110 ^
b110000 R
0$
b1010 )
b1010 G
b1010 M
b1010 `
1,
#460
0,
#465
b0 e
0C
b1 K
b1 L
b1 Q
b1 c
b1 d
b1 i
b1 !
b1 3
b1 N
b1 P
b1 X
b1 Y
b1 a
b1 h
0<
1E
b10 H
b10 b
1?
1@
b1011010100000 S
0]
05
b110001 R
1$
b11 %
b11 9
b11 O
b11 V
b1100110011 (
b1100110011 F
b1100110011 [
b1100110011 g
b110011 #
b110011 8
b110011 T
b110011 _
b11111 *
b11111 I
b11111 \
b11111 ^
1,
#470
0,
#475
b1 !
b1 3
b1 N
b1 P
b1 X
b1 Y
b1 a
b1 h
1<
0E
b0 H
b0 b
0?
0@
bx i
b1000000001000 S
1]
15
b1101001010 (
b1101001010 F
b1101001010 [
b1101001010 g
b1001010 #
b1001010 8
b1001010 T
b1001010 _
b100000 *
b100000 I
b100000 \
b100000 ^
b110000 R
0$
b1 )
b1 G
b1 M
b1 `
1,
#476
b111100000 2
#480
0,
#485
b0 e
0C
b1010 K
b1010 L
b1010 Q
b1010 c
b1010 d
b1010 !
b1010 3
b1010 N
b1010 P
b1010 X
b1010 Y
b1010 a
b1010 h
1:
0<
b10 H
b10 b
1?
1@
0B
b11010000010 S
0]
05
1$
b1010 %
b1010 9
b1010 O
b1010 V
b100001 R
b100 &
b100 A
b100 U
b101011110010 (
b101011110010 F
b101011110010 [
b101011110010 g
b11110010 #
b11110010 8
b11110010 T
b11110010 _
b100001 *
b100001 I
b100001 \
b100001 ^
1,
#490
0,
#495
0:
1<
b0 H
b0 b
0?
0@
1B
b1000000001000 S
1]
15
b100000 R
0$
b1010 )
b1010 G
b1010 M
b1010 `
1,
#500
0,
#505
b101 K
b101 L
b101 Q
b101 c
b1010 i
b101 d
b1010 !
b1010 3
b1010 N
b1010 P
b1010 X
b1010 Y
b1010 a
b1010 h
0<
1E
b100 H
b100 b
1?
1@
b1011100100000 S
0]
05
1$
b10 %
b10 9
b10 O
b10 V
b1111001 R
b1111 &
b1111 A
b1111 U
b1000100010 (
b1000100010 F
b1000100010 [
b1000100010 g
b100010 #
b100010 8
b100010 T
b100010 _
b100010 *
b100010 I
b100010 \
b100010 ^
1,
#510
0,
#515
b101 !
b101 3
b101 N
b101 P
b101 X
b101 Y
b101 a
b101 h
1<
0E
b0 H
b0 b
0?
0@
b101 K
b101 L
b101 Q
b101 c
bx i
b1000000001000 S
b101 d
1]
15
b1001001111 (
b1001001111 F
b1001001111 [
b1001001111 g
b1001111 #
b1001111 8
b1001111 T
b1001111 _
b100011 *
b100011 I
b100011 \
b100011 ^
b1111000 R
0$
b101 )
b101 G
b101 M
b101 `
1,
#516
b1000001000 2
#520
0,
#525
b1111 K
b1111 L
b1111 Q
b1111 c
b1111 d
b1111 !
b1111 3
b1111 N
b1111 P
b1111 X
b1111 Y
b1111 a
b1111 h
1:
0<
b10 H
b10 b
1?
1@
0B
b11010000010 S
0]
05
1$
b1111 %
b1111 9
b1111 O
b1111 V
b100001 R
b100 &
b100 A
b100 U
b111110110011 (
b111110110011 F
b111110110011 [
b111110110011 g
b10110011 #
b10110011 8
b10110011 T
b10110011 _
b100100 *
b100100 I
b100100 \
b100100 ^
1,
#530
0,
#535
0:
1<
b0 H
b0 b
0?
0@
1B
b1000000001000 S
1]
15
b100000 R
0$
b1111 )
b1111 G
b1111 M
b1111 `
1,
#540
0,
#545
1C
b0 K
b0 L
b0 Q
b0 c
b11 e
1D
b1 i
b10000 d
b1 !
b1 3
b1 N
b1 P
b1 X
b1 Y
b1 a
b1 h
0<
1E
b11 H
b11 b
1?
1@
b1011011100000 S
0]
05
1$
b11 %
b11 9
b11 O
b11 V
b1011001 R
b1011 &
b1011 A
b1011 U
b1100110011 (
b1100110011 F
b1100110011 [
b1100110011 g
b110011 #
b110011 8
b110011 T
b110011 _
b100101 *
b100101 I
b100101 \
b100101 ^
1,
#550
0,
#555
1C
b0 !
b0 3
b0 N
b0 P
b0 X
b0 Y
b0 a
b0 h
1<
0E
b0 H
b0 b
0?
0@
b0 K
b0 L
b0 Q
b0 c
b1 e
0D
bx i
b1000000001000 S
b0 d
1]
15
1"
1'
b1101001000 (
b1101001000 F
b1101001000 [
b1101001000 g
b1001000 #
b1001000 8
b1001000 T
b1001000 _
b100110 *
b100110 I
b100110 \
b100110 ^
b1011110 R
0$
b0 )
b0 G
b0 M
b0 `
b11 f
1,
#556
b1000110000 2
#560
0,
#565
b0 e
0C
b1000 K
b1000 L
b1000 Q
b1000 c
b1000 d
b1000 !
b1000 3
b1000 N
b1000 P
b1000 X
b1000 Y
b1000 a
b1000 h
1:
0<
b10 H
b10 b
1?
1@
0B
b11010000010 S
0]
05
1$
b1000 %
b1000 9
b1000 O
b1000 V
b100111 R
b100 &
b100 A
b100 U
b100000110010 (
b100000110010 F
b100000110010 [
b100000110010 g
b110010 #
b110010 8
b110010 T
b110010 _
b100111 *
b100111 I
b100111 \
b100111 ^
1,
#570
0,
#575
0:
1<
b0 H
b0 b
0?
0@
1B
b1000000001000 S
1]
15
0"
0'
b100000 R
0$
b1000 )
b1000 G
b1000 M
b1000 `
b0 f
1,
#580
0,
#585
0C
b10 e
1D
b1110 K
b1110 L
b1110 Q
b1110 c
b1010 i
b11110 d
b1010 !
b1010 3
b1010 N
b1010 P
b1010 X
b1010 Y
b1010 a
b1010 h
0<
1E
b1 H
b1 b
1?
b1001001100000 S
0]
05
1$
b10 %
b10 9
b10 O
b10 V
b11001 R
b11 &
b11 A
b11 U
b1000100010 (
b1000100010 F
b1000100010 [
b1000100010 g
b100010 #
b100010 8
b100010 T
b100010 _
b101000 *
b101000 I
b101000 \
b101000 ^
1,
#590
0,
#595
b1000 K
b1000 L
b1000 Q
b1000 c
b0 e
0D
b1000 d
b1000 !
b1000 3
b1000 N
b1000 P
b1000 X
b1000 Y
b1000 a
b1000 h
1<
0E
b0 H
b0 b
0?
bx i
b1000000001000 S
1]
15
1'
b1001001100 (
b1001001100 F
b1001001100 [
b1001001100 g
b1001100 #
b1001100 8
b1001100 T
b1001100 _
b101001 *
b101001 I
b101001 \
b101001 ^
b11100 R
0$
b10 f
1,
#596
b1001000100 2
#600
0,
#605
b1100 K
b1100 L
b1100 Q
b1100 c
b1100 d
b1100 !
b1100 3
b1100 N
b1100 P
b1100 X
b1100 Y
b1100 a
b1100 h
1:
0<
b10 H
b10 b
1?
1@
0B
b11010000010 S
0]
05
1$
b1100 %
b1100 9
b1100 O
b1100 V
b100101 R
b100 &
b100 A
b100 U
b110000110010 (
b110000110010 F
b110000110010 [
b110000110010 g
b110010 #
b110010 8
b110010 T
b110010 _
b101010 *
b101010 I
b101010 \
b101010 ^
1,
#610
0,
#615
0:
1<
b0 H
b0 b
0?
0@
1B
b1000000001000 S
1]
15
0'
b100000 R
0$
b1100 )
b1100 G
b1100 M
b1100 `
b0 f
1,
#620
0,
#625
0C
b0 e
0D
b10 K
b10 L
b10 Q
b10 c
b1010 i
b10 d
b1010 !
b1010 3
b1010 N
b1010 P
b1010 X
b1010 Y
b1010 a
b1010 h
0<
1E
b1 H
b1 b
1?
b1001001100000 S
0]
05
1$
b10 %
b10 9
b10 O
b10 V
b11001 R
b11 &
b11 A
b11 U
b1000100010 (
b1000100010 F
b1000100010 [
b1000100010 g
b100010 #
b100010 8
b100010 T
b100010 _
b101011 *
b101011 I
b101011 \
b101011 ^
1,
#630
0,
#635
b0 e
0C
b1100 K
b1100 L
b1100 Q
b1100 c
b1100 d
b1100 !
b1100 3
b1100 N
b1100 P
b1100 X
b1100 Y
b1100 a
b1100 h
1<
0E
b0 H
b0 b
0?
bx i
b1000000001000 S
1]
15
b1011001010 (
b1011001010 F
b1011001010 [
b1011001010 g
b11001010 #
b11001010 8
b11001010 T
b11001010 _
b101100 *
b101100 I
b101100 \
b101100 ^
b11000 R
0$
1,
#636
b1001011000 2
#640
0,
